Project_Guitar_Hero/simulation/qsim/spectru.msim.vcd
$comment
	File created using the following command:
		vcd file spectru.msim.vcd -direction
$end
$date
	Mon Mar 27 16:19:54 2023
$end
$version
	ModelSim Version 10.5b
$end
$timescale
	1ps
$end

$scope module fft_reset_control_vhd_vec_tst $end
$var wire 1 ! clk $end
$var wire 1 " reset_n $end

$scope module i1 $end
$var wire 1 # gnd $end
$var wire 1 $ vcc $end
$var wire 1 % unknown $end
$var wire 1 & devoe $end
$var wire 1 ' devclrn $end
$var wire 1 ( devpor $end
$var wire 1 ) ww_devoe $end
$var wire 1 * ww_devclrn $end
$var wire 1 + ww_devpor $end
$var wire 1 , ww_clk $end
$var wire 1 - ww_reset_n $end
$var wire 1 . \clk~inputclkctrl_INCLK_bus\ [3] $end
$var wire 1 / \clk~inputclkctrl_INCLK_bus\ [2] $end
$var wire 1 0 \clk~inputclkctrl_INCLK_bus\ [1] $end
$var wire 1 1 \clk~inputclkctrl_INCLK_bus\ [0] $end
$var wire 1 2 \reset_n~output_o\ $end
$var wire 1 3 \clk~input_o\ $end
$var wire 1 4 \clk~inputclkctrl_outclk\ $end
$var wire 1 5 \count[0]~0_combout\ $end
$var wire 1 6 \Add0~4_combout\ $end
$var wire 1 7 \Add0~3_combout\ $end
$var wire 1 8 \Add0~0_combout\ $end
$var wire 1 9 \Add0~1_combout\ $end
$var wire 1 : \Add0~2_combout\ $end
$var wire 1 ; \reset_n~0_combout\ $end
$var wire 1 < \reset_n~1_combout\ $end
$var wire 1 = \reset_n~reg0_q\ $end
$var wire 1 > count [4] $end
$var wire 1 ? count [3] $end
$var wire 1 @ count [2] $end
$var wire 1 A count [1] $end
$var wire 1 B count [0] $end
$upscope $end
$upscope $end
$enddefinitions $end
#0
$dumpvars
0!
0"
0#
1$
x%
1&
1'
1(
1)
1*
1+
0,
0-
02
03
04
15
06
07
08
09
0:
1;
0<
0=
0>
0?
0@
0A
0B
1.
1/
10
01
$end
#40000
1!
1,
13
11
14
1B
05
16
1<
#80000
0!
0,
03
01
04
#120000
1!
1,
13
11
14
0B
1A
1=
0;
15
12
1-
1"
#160000
0!
0,
03
01
04
#200000
1!
1,
13
11
14
1B
05
06
17
#240000
0!
0,
03
01
04
#280000
1!
1,
13
11
14
0B
0A
1@
15
#320000
0!
0,
03
01
04
#360000
1!
1,
13
11
14
1B
05
16
#400000
0!
0,
03
01
04
#440000
1!
1,
13
11
14
0B
1A
15
#480000
0!
0,
03
01
04
#520000
1!
1,
13
11
14
1B
05
06
07
18
#560000
0!
0,
03
01
04
#600000
1!
1,
13
11
14
0B
0A
0@
1?
1;
15
#640000
0!
0,
03
01
04
#680000
1!
1,
13
11
14
1B
05
16
#720000
0!
0,
03
01
04
#760000
1!
1,
13
11
14
0B
1A
0;
15
#800000
0!
0,
03
01
04
#840000
1!
1,
13
11
14
1B
05
06
17
#880000
0!
0,
03
01
04
#920000
1!
1,
13
11
14
0B
0A
1@
15
#960000
0!
0,
03
01
04
